<?xml version="1.0" encoding="UTF-8" standalone="no"?>
<svg
   xmlns:dc="http://purl.org/dc/elements/1.1/"
   xmlns:cc="http://creativecommons.org/ns#"
   xmlns:rdf="http://www.w3.org/1999/02/22-rdf-syntax-ns#"
   xmlns:svg="http://www.w3.org/2000/svg"
   xmlns="http://www.w3.org/2000/svg"
   xmlns:sodipodi="http://sodipodi.sourceforge.net/DTD/sodipodi-0.dtd"
   xmlns:inkscape="http://www.inkscape.org/namespaces/inkscape"
   height="290"
   width="665.7207"
   version="1.1"
   id="svg69"
   sodipodi:docname="generics_demonstration.svg"
   inkscape:version="0.92.5 (2060ec1f9f, 2020-04-08)">
  <metadata
     id="metadata75">
    <rdf:RDF>
      <cc:Work
         rdf:about="">
        <dc:format>image/svg+xml</dc:format>
        <dc:type
           rdf:resource="http://purl.org/dc/dcmitype/StillImage" />
        <dc:title></dc:title>
      </cc:Work>
    </rdf:RDF>
  </metadata>
  <defs
     id="defs73" />
  <sodipodi:namedview
     pagecolor="#ffffff"
     bordercolor="#666666"
     borderopacity="1"
     objecttolerance="10"
     gridtolerance="10"
     guidetolerance="10"
     inkscape:pageopacity="0"
     inkscape:pageshadow="2"
     inkscape:window-width="858"
     inkscape:window-height="480"
     id="namedview71"
     showgrid="false"
     fit-margin-top="0"
     fit-margin-left="0"
     fit-margin-right="0"
     fit-margin-bottom="0"
     inkscape:zoom="0.4"
     inkscape:cx="352.62109"
     inkscape:cy="45"
     inkscape:window-x="0"
     inkscape:window-y="0"
     inkscape:window-maximized="0"
     inkscape:current-layer="svg69" />
  <path
     id="connection:from:Self:floating_point_value:to:isPositive:value"
     data-from="Self"
     data-output="floating_point_value"
     data-to="isPositive"
     data-input="value"
     class=" connection"
     fill="transparent"
     pointer-events="visibleStroke"
     d="m 130.62109,40 c 61,0 61,15 122,15"
     inkscape:connector-curvature="0"
     style="fill-opacity:0;stroke:#808080;stroke-width:5" />
  <path
     id="connection:from:isPositive:positive:to:Self:is_positive"
     data-from="isPositive"
     data-output="positive"
     data-to="Self"
     data-input="is_positive"
     class=" connection"
     fill="transparent"
     pointer-events="visibleStroke"
     d="m 452.62109,55 c 61,0 61,25 122,25"
     inkscape:connector-curvature="0"
     style="fill-opacity:0;stroke:#808080;stroke-width:5" />
  <path
     id="connection:from:Self:floating_point_value:to:saturatingToI64:value"
     data-from="Self"
     data-output="floating_point_value"
     data-to="saturatingToI64"
     data-input="value"
     class=" connection"
     fill="transparent"
     pointer-events="visibleStroke"
     d="m 130.62109,40 h 47 q 20,0 20,20 v 35 c 0,50 -11,50 -11,100 v 35 q 0,20 20,20 h 46"
     inkscape:connector-curvature="0"
     style="fill-opacity:0;stroke:#808080;stroke-width:5" />
  <path
     id="connection:from:saturatingToI64:into:to:Self:integer_value"
     data-from="saturatingToI64"
     data-output="into"
     data-to="Self"
     data-input="integer_value"
     class=" connection"
     fill="transparent"
     pointer-events="visibleStroke"
     d="m 452.62109,250 h 36 q 20,0 20,-20 v -35 c 0,-50 11,-50 11,-100 V 60 q 0,-20 20,-20 h 35"
     inkscape:connector-curvature="0"
     style="fill-opacity:0;stroke:#808080;stroke-width:5" />
  <g
     id="isPositive"
     data-name="isPositive"
     data-type="std/ops/num::isPositive"
     data-version="0.8.0-rc3"
     class=" treatment"
     transform="translate(252.62109)">
    <rect
       class=""
       width="200"
       height="95"
       rx="10"
       id="rect6"
       x="0"
       y="0"
       style="fill:#d3d3d3;fill-opacity:0.5" />
    <text
       class=" name"
       font-size="20"
       x="100"
       y="20"
       id="text8"
       style="font-size:20px;font-family:sans-serif;text-anchor:middle;fill:#000000">isPositive</text>
    <text
       class=" type"
       font-style="italic"
       font-size="12"
       x="100"
       y="35"
       id="text10"
       style="font-style:italic;font-size:12px;font-family:sans-serif;text-anchor:middle;fill:#000000">std/ops/num::isPositive</text>
    <g
       id="isPositive:input:value"
       data-input="value"
       class=" input"
       transform="translate(0,55)">
      <circle
         class=" symbol"
         cx="0"
         cy="0"
         r="5"
         id="circle12"
         style="fill:#ffffff;stroke:#000000;stroke-width:2" />
      <text
         class=""
         font-size="12"
         x="10"
         y="2.5"
         id="text14"
         style="font-size:12px;font-family:sans-serif;text-anchor:start;fill:#000000">value</text>
    </g>
    <g
       id="isPositive:output:positive"
       data-output="positive"
       class=" output"
       transform="translate(200,55)">
      <circle
         class=" symbol"
         cx="0"
         cy="0"
         r="5"
         id="circle17"
         style="fill:#ffffff;stroke:#000000;stroke-width:2" />
      <text
         class=""
         font-size="12"
         x="-10"
         y="2.5"
         id="text19"
         style="font-size:12px;font-family:sans-serif;text-anchor:end;fill:#000000">positive</text>
    </g>
    <g
       id="isPositive:generic:N"
       data-name="N"
       data-value="f32"
       class=" generic"
       transform="translate(100,75)">
      <text
         class=""
         font-size="12"
         x="0"
         y="5"
         id="text26"
         style="font-size:12px;font-family:sans-serif;text-anchor:middle"><tspan
   class=""
   id="tspan22">N</tspan>
 = <tspan
   class=""
   id="tspan24">f32</tspan>
</text>
    </g>
  </g>
  <g
     id="saturatingToI64"
     data-name="saturatingToI64"
     data-type="std/conv::saturatingToI64"
     data-version="0.8.0-rc3"
     class=" treatment"
     transform="translate(252.62109,195)">
    <rect
       class=""
       width="200"
       height="95"
       rx="10"
       id="rect30"
       x="0"
       y="0"
       style="fill:#d3d3d3;fill-opacity:0.5" />
    <text
       class=" name"
       font-size="20"
       x="100"
       y="20"
       id="text32"
       style="font-size:20px;font-family:sans-serif;text-anchor:middle;fill:#000000">saturatingToI64</text>
    <text
       class=" type"
       font-style="italic"
       font-size="12"
       x="100"
       y="35"
       id="text34"
       style="font-style:italic;font-size:12px;font-family:sans-serif;text-anchor:middle;fill:#000000">std/conv::saturatingToI64</text>
    <g
       id="saturatingToI64:input:value"
       data-input="value"
       class=" input"
       transform="translate(0,55)">
      <circle
         class=" symbol"
         cx="0"
         cy="0"
         r="5"
         id="circle36"
         style="fill:#ffffff;stroke:#000000;stroke-width:2" />
      <text
         class=""
         font-size="12"
         x="10"
         y="2.5"
         id="text38"
         style="font-size:12px;font-family:sans-serif;text-anchor:start;fill:#000000">value</text>
    </g>
    <g
       id="saturatingToI64:output:into"
       data-output="into"
       class=" output"
       transform="translate(200,55)">
      <circle
         class=" symbol"
         cx="0"
         cy="0"
         r="5"
         id="circle41"
         style="fill:#ffffff;stroke:#000000;stroke-width:2" />
      <text
         class=""
         font-size="12"
         x="-10"
         y="2.5"
         id="text43"
         style="font-size:12px;font-family:sans-serif;text-anchor:end;fill:#000000">into</text>
    </g>
    <g
       id="saturatingToI64:generic:T"
       data-name="T"
       data-value="f32"
       class=" generic"
       transform="translate(100,75)">
      <text
         class=""
         font-size="12"
         x="0"
         y="5"
         id="text50"
         style="font-size:12px;font-family:sans-serif;text-anchor:middle"><tspan
   class=""
   id="tspan46">T</tspan>
 = <tspan
   class=""
   id="tspan48">f32</tspan>
</text>
    </g>
  </g>
  <g
     id="Self:input:floating_point_value"
     data-input="floating_point_value"
     class=" self-input"
     transform="translate(130.62109,40)">
    <circle
       class=" symbol"
       cx="0"
       cy="0"
       r="5"
       id="circle54"
       style="fill:#ffffff;stroke:#000000;stroke-width:2" />
    <text
       class=""
       font-size="12"
       x="-10"
       y="2.5"
       id="text56"
       style="font-size:12px;font-family:sans-serif;text-anchor:end;fill:#000000">floating_point_value</text>
  </g>
  <g
     id="Self:output:integer_value"
     data-output="integer_value"
     class=" self-output"
     transform="translate(574.62109,40)">
    <circle
       class=" symbol"
       cx="0"
       cy="0"
       r="5"
       id="circle59"
       style="fill:#ffffff;stroke:#000000;stroke-width:2" />
    <text
       class=""
       font-size="12"
       x="10"
       y="2.5"
       id="text61"
       style="font-size:12px;font-family:sans-serif;text-anchor:start;fill:#000000">integer_value</text>
  </g>
  <g
     id="Self:output:is_positive"
     data-output="is_positive"
     class=" self-output"
     transform="translate(574.62109,80)">
    <circle
       class=" symbol"
       cx="0"
       cy="0"
       r="5"
       id="circle64"
       style="fill:#ffffff;stroke:#000000;stroke-width:2" />
    <text
       class=""
       font-size="12"
       x="10"
       y="2.5"
       id="text66"
       style="font-size:12px;font-family:sans-serif;text-anchor:start;fill:#000000">is_positive</text>
  </g>
</svg>
